{
  "eslint.autoFixOnSave": true,
  "eslint.validate": [
    "javascript",
    "javascriptreact",
    {
      "language": "typescript",
      "autoFix": true
    },
    {
      "language": "typescriptreact",
      "autoFix": true
    }
  ],
  "editor.formatOnSave": true,
}